{
    "template": {
        "productData":["$.data", {
            "operationType": "$.operationType",
            "category": "$..category",
            "sub_category": "$..subCategory",
            "product_title": "$..productTitle",
            "product_url": "$..productUrl",
            "image_url": "$..imageUrl",
            "description": "$..description",
            "product_size": "$..productSize",
            "country_name": "$..countryName",
            "ean_number": "$..eanNumber"
        }]
    }
}